[gd_scene load_steps=5 format=2]

[ext_resource path="res://Scripts/Fish.gd" type="Script" id=1]
[ext_resource path="res://Sprites/Fish/treffi.png" type="Texture" id=2]

[sub_resource type="RectangleShape2D" id=1]
extents = Vector2( 2.21692, 3.24214 )

[sub_resource type="Animation" id=2]
resource_name = "wiggle"
tracks/0/type = "value"
tracks/0/path = NodePath("Sprite:rotation_degrees")
tracks/0/interp = 1
tracks/0/loop_wrap = true
tracks/0/imported = false
tracks/0/enabled = true
tracks/0/keys = {
"times": PoolRealArray( 0.1, 0.2, 0.3, 0.4 ),
"transitions": PoolRealArray( 1, 1, 1, 1 ),
"update": 1,
"values": [ -5.0, 5.0, -5.0, 0.0 ]
}

[node name="Treffi" type="KinematicBody2D"]
collision_layer = 2147483648
collision_mask = 2
script = ExtResource( 1 )

[node name="Sprite" type="Sprite" parent="."]
texture = ExtResource( 2 )

[node name="CollisionShape2D" type="CollisionShape2D" parent="."]
position = Vector2( 3.45205, 0.13814 )
shape = SubResource( 1 )

[node name="TimerNextSwimTarget" type="Timer" parent="."]
one_shot = true
autostart = true

[node name="TimerWiggle" type="Timer" parent="."]
wait_time = 1.5

[node name="AnimationPlayer" type="AnimationPlayer" parent="."]
anims/wiggle = SubResource( 2 )
[connection signal="timeout" from="TimerNextSwimTarget" to="." method="_on_TimerNextSwimTarget_timeout"]
[connection signal="timeout" from="TimerWiggle" to="." method="_on_TimerWiggle_timeout"]
