[gd_scene load_steps=3 format=2]

[ext_resource path="res://Sprites/ProbeArmHead.png" type="Texture" id=1]

[sub_resource type="RectangleShape2D" id=1]
extents = Vector2( 2.65466, 5.18644 )

[node name="ArmHeadSprite" type="Sprite"]
scale = Vector2( 4, 4 )
z_index = 3
texture = ExtResource( 1 )
offset = Vector2( 2, 0 )

[node name="Area2D" type="Area2D" parent="."]
position = Vector2( 0.936442, 0 )
collision_layer = 2
collision_mask = 2147483650

[node name="CollisionShape2D" type="CollisionShape2D" parent="Area2D"]
shape = SubResource( 1 )
